<?xml version="1.0" encoding="UTF-8" standalone="no"?>
<!-- Created with Inkscape (http://www.inkscape.org/) -->

<svg
   width="410mm"
   height="100mm"
   viewBox="0 0 410 100"
   version="1.1"
   id="svg982"
   inkscape:version="1.2.2 (b0a8486541, 2022-12-01)"
   sodipodi:docname="podcast-header.svg"
   inkscape:export-filename="podcast-header.svg"
   inkscape:export-xdpi="96"
   inkscape:export-ydpi="96"
   xmlns:inkscape="http://www.inkscape.org/namespaces/inkscape"
   xmlns:sodipodi="http://sodipodi.sourceforge.net/DTD/sodipodi-0.dtd"
   xmlns="http://www.w3.org/2000/svg"
   xmlns:svg="http://www.w3.org/2000/svg">
  <sodipodi:namedview
     id="namedview984"
     pagecolor="#ffffff"
     bordercolor="#666666"
     borderopacity="1.0"
     inkscape:showpageshadow="2"
     inkscape:pageopacity="0.0"
     inkscape:pagecheckerboard="0"
     inkscape:deskcolor="#d1d1d1"
     inkscape:document-units="mm"
     showgrid="false"
     showborder="false"
     inkscape:zoom="0.2102413"
     inkscape:cx="673.03617"
     inkscape:cy="437.59242"
     inkscape:window-width="960"
     inkscape:window-height="481"
     inkscape:window-x="0"
     inkscape:window-y="0"
     inkscape:window-maximized="1"
     inkscape:current-layer="layer1"
     inkscape:export-bgcolor="#000000ff" />
  <defs
     id="defs979" />
  <g
     inkscape:label="Layer 1"
     inkscape:groupmode="layer"
     id="layer1"
     transform="translate(123.98003,-32.849521)">
    <path
       style="fill:#ffffff;stroke-width:0.264583"
       d="m 95.96512,127.56398 v -1.71979 h -9.27245 -9.27244 l -0.64943,-0.64943 -0.64943,-0.64943 v -6.8912 -6.89119 h -1.45521 -1.45521 v 0.66146 0.66146 H 69.2422 65.27345 v -1.98237 -1.98236 l 0.59531,-0.68103 0.59531,-0.68104 0.19745,-1.2392 c 0.23916,-1.50107 0.23936,-1.51663 0.0359,-2.77703 l -0.16281,-1.00865 -0.29986,0.11375 c -1.10334,0.41854 -13.920295,4.41709 -14.158539,4.41709 H 51.779699 V 95.124215 83.983408 l 0.33073,0.122915 c 0.181901,0.0676 3.692391,1.181669 7.801081,2.475703 l 7.47036,2.352789 0.004,0.859896 0.004,0.859896 h 3.43958 3.43958 v 1.455208 1.455208 h -0.66146 -0.66145 v -0.79375 -0.79375 h -2.77813 -2.77812 v 3.307292 3.307292 h 2.24895 2.24896 v 0.661458 0.661458 h -2.24896 -2.24895 v 0.364377 0.36437 l 1.14812,-0.12941 1.14812,-0.12941 0.59325,0.75419 0.59325,0.75419 -0.15352,0.92908 c -0.19069,1.15401 -0.1904,1.22975 0.009,2.46668 l 0.16278,1.00845 -0.57371,0.61069 -0.57371,0.61069 0.14848,0.62983 0.14849,0.62981 -0.33844,0.65625 c -0.18614,0.36093 -0.63374,0.80566 -0.99468,0.98829 l -0.65624,0.33204 1.91823,0.004 1.91823,0.004 v -5.29167 -5.29166 h 0.66146 0.66145 v 4.6302 4.63021 h 2.77813 2.77812 v 0.66146 0.66146 h -0.6659 -0.66593 l 0.0706,6.81302 0.0706,6.81302 9.19427,0.0696 9.19427,0.0696 v -5.2951 -5.29509 h 0.66146 0.66146 v 7.67292 7.67291 H 96.62605 95.9646 v -1.71979 z M 67.31846,110.60309 c -0.0879,-0.0879 -0.31612,-0.0973 -0.50712,-0.0209 l -0.34727,0.13897 0.50712,0.0209 c 0.27892,0.0115 0.43519,-0.0511 0.34727,-0.13896 z m 1.12016,-1.67386 0.27336,-0.51079 -0.404,-0.40401 -0.40401,-0.40401 -0.36876,0.14151 c -0.20282,0.0778 -0.43955,0.32599 -0.52608,0.55146 l -0.15731,0.40995 0.30154,0.36334 c 0.4256,0.51281 0.96501,0.45093 1.28526,-0.14745 z m 1.01601,-3.35813 0.0801,-0.56164 -0.41087,-0.15767 c -0.22597,-0.0867 -0.58946,-0.0891 -0.80774,-0.005 l -0.39687,0.1523 v 0.45676 c 0,0.62155 0.27283,0.8465 0.91515,0.75455 l 0.54006,-0.0773 z m -7.0916,-3.87318 3.57188,-1.13913 0.0714,-5.293565 0.0714,-5.293558 -5.89228,-1.880979 C 56.94467,87.056149 54.025254,86.130224 53.697832,86.033077 L 53.10262,85.856446 v 9.385898 9.385896 l 2.84427,-0.89559 c 1.56435,-0.49257 4.45162,-1.4082 6.41615,-2.03473 z m 7.01146,0.86294 v -0.66146 l -0.59649,-0.0847 -0.5965,-0.0847 -0.15942,0.41543 c -0.0877,0.22849 -0.0877,0.60238 0,0.83086 l 0.15942,0.41544 0.5965,-0.0847 0.59649,-0.0847 z m 46.96355,18.9177 v -7.8052 h 0.66147 0.66145 v 7.8052 7.80521 h -0.66145 -0.66147 z m 7.67291,-3.38666 v -11.19188 l -0.31749,-0.3175 -0.3175,-0.3175 h -6.26665 -6.26665 l -0.41359,0.63122 -0.41359,0.63122 -1.15558,0.5594 -1.15559,0.55941 h -1.11559 -1.11559 l -0.93973,-0.39264 c -0.51685,-0.21595 -1.28209,-0.75915 -1.70056,-1.2071 l -0.76081,-0.81446 -4.88492,0.0826 -4.88492,0.0826 -0.70722,0.66146 c -0.38897,0.36381 -0.8745,0.98297 -1.07895,1.37593 l -0.37174,0.71446 v 4.90793 4.90793 h -3.57187 -3.57188 v -4.10104 -4.10104 H 82.47137 81.9422 v -3.64157 -3.64156 l -3.64145,-3.634478 c -2.00279,-1.998962 -3.7292,-3.634475 -3.83645,-3.634475 -0.68401,0 -0.0167,2.824159 0.87894,3.719787 l 0.56592,0.565916 -0.17742,0.83371 c -0.0976,0.45854 -0.23344,1.36949 -0.30193,2.02434 l -0.12453,1.19062 0.54713,0.87746 0.54712,0.87746 1.44842,0.64056 1.44842,0.64056 v 0.38459 c 0,0.62924 -0.39202,0.69262 -1.76398,0.28519 l -1.3001,-0.38609 -0.68672,-0.73382 c -0.37769,-0.4036 -0.8789,-1.11486 -1.11379,-1.58058 l -0.42708,-0.84676 v -1.18654 c 0,-0.6526 0.11451,-1.48773 0.25447,-1.85585 l 0.25448,-0.66932 -0.28203,-0.1743 c -0.15511,-0.0959 -0.50513,-0.66563 -0.77783,-1.266138 l -0.4958,-1.091837 -0.006,-1.132978 -0.006,-1.132977 0.36988,-0.885243 c 0.20343,-0.486884 0.51431,-0.974513 0.69085,-1.08362 l 0.32098,-0.198374 4.33622,4.330256 4.33623,4.330251 v 3.37645 3.37644 h 0.66146 0.66146 v 4.10104 4.10105 h 2.23226 2.23225 l 0.0829,-4.71679 0.0828,-4.71678 0.71015,-1.072 0.71014,-1.07199 1.15933,-0.56122 1.15933,-0.56122 h 4.63796 4.63795 l 0.49838,-0.5507 0.49837,-0.5507 0.006,-1.4696 0.006,-1.46961 -1.5875,-0.43909 c -0.87324,-0.24146 -2.24246,-0.79084 -3.04283,-1.220804 l -1.45521,-0.781751 -1.39489,-1.377641 -1.3949,-1.37764 -0.78861,-1.665068 -0.78862,-1.665068 2.78494,-0.145759 2.78495,-0.145761 0.49539,-0.515697 c 0.27247,-0.283636 0.5754,-0.78359 0.67317,-1.111012 l 0.17778,-0.595312 H 95.9542 92.46784 l 0.1081,-0.926042 0.10812,-0.926042 h -0.30274 c -0.16651,0 -0.5236,-0.244046 -0.79354,-0.542327 l -0.4908,-0.542327 v -0.899721 -0.899721 l 0.4908,-0.542327 c 0.26994,-0.29828 0.61335,-0.542327 0.76313,-0.542327 0.14978,0 0.75641,-0.234846 1.34806,-0.521882 l 1.07572,-0.521886 0.36821,-0.602593 0.36821,-0.602597 -0.52134,0.463021 -0.52133,0.463021 H 93.49709 92.52573 L 91.99657,82.18794 91.4674,81.658773 v -1.017325 -1.017326 l 0.48038,-0.434742 c 0.26421,-0.239106 0.85475,-0.509614 1.31232,-0.601125 l 0.83193,-0.166386 0.8247,0.824701 c 1.017,1.016992 0.94224,1.026416 1.32877,-0.167484 0.17667,-0.545703 0.61473,-1.577658 0.97345,-2.293231 l 0.65223,-1.301041 1.33964,-1.416473 1.33965,-1.416474 1.34544,-0.763487 c 0.74,-0.419917 1.99214,-0.953206 2.78253,-1.185087 l 1.43709,-0.421603 h 2.04507 2.04506 l 1.61058,0.501269 c 2.04216,0.63559 3.86779,1.805438 5.4392,3.485415 l 1.23386,1.319096 0.77107,1.647735 c 0.42409,0.906256 0.8926,2.28855 1.04113,3.071765 l 0.27006,1.424029 v 3.764233 3.764232 l -0.26426,1.425176 -0.26427,1.425175 -0.91788,1.871832 -0.91788,1.871832 -1.39754,1.320366 c -1.75411,1.657249 -3.38256,2.617425 -5.24041,3.089885 l -1.44879,0.36844 -0.2498,0.98357 -0.24979,0.98358 0.38209,1.10525 0.38209,1.10524 6.83638,0.1323 6.83637,0.13229 0.63811,0.74236 0.6381,0.74236 v 11.36232 11.36233 h -0.66146 -0.66146 z m -15.90873,-11.14797 c 0.40354,-0.20869 0.87523,-0.54991 1.04815,-0.75827 l 0.3144,-0.37884 -0.5263,-1.15996 -0.5263,-1.15996 -0.006,-0.98683 -0.006,-0.98684 0.41769,-1.04395 0.41771,-1.04395 1.05402,-0.178075 c 0.57972,-0.09794 1.87342,-0.58801 2.87493,-1.089041 l 1.82093,-0.910963 1.22659,-1.364274 c 1.45275,-1.615826 2.10383,-2.818873 2.64043,-4.879015 l 0.39562,-1.518867 v -3.989863 -3.989864 l -0.39561,-1.518867 c -0.53711,-2.062102 -1.18778,-3.263315 -2.64651,-4.885783 l -1.23269,-1.371039 -2.01605,-0.996391 -2.01607,-0.996389 h -2.79184 -2.79184 l -1.75246,0.830318 -1.75242,0.830315 -1.05266,0.951019 c -1.23565,1.116336 -2.26169,2.541313 -2.85244,3.961511 l -0.423,1.016915 0.60192,-0.421603 c 0.33106,-0.231881 0.88224,-0.421601 1.22486,-0.421601 h 0.62294 l 0.79375,0.79375 0.79375,0.793751 h 3.79889 3.79888 l 0.74482,0.281417 c 1.48491,0.561041 3.23476,2.865069 3.25255,4.282646 l 0.006,0.463021 h -0.64044 -0.64042 l -0.17161,-0.781325 c -0.21992,-1.001253 -1.03419,-2.033191 -1.99734,-2.531253 l -0.75726,-0.39159 h -3.70528 -3.70526 l -0.66146,0.661458 -0.66146,0.661459 h -1.05116 -1.05115 l -0.50566,-0.642848 -0.50567,-0.642845 -0.45948,1.041432 -0.45947,1.041434 -0.84,0.626999 c -0.462,0.34485 -1.28483,0.769485 -1.8285,0.943634 -1.12852,0.361479 -1.33047,0.581475 -1.09562,1.193488 l 0.16656,0.434049 0.76034,0.152067 0.76034,0.152069 v 0.760677 0.760677 h 3.30729 3.3073 v 0.920686 c 0,0.506379 -0.19336,1.403922 -0.42967,1.994541 l -0.42967,1.073854 -0.78081,0.403767 -0.7808,0.403767 -1.83223,0.153609 -1.83224,0.153607 v 0.21653 c 0,0.119091 0.72368,0.99015 1.60819,1.935689 l 1.60819,1.719159 1.59951,0.799288 1.59952,0.799287 1.30184,0.172697 1.30184,0.172693 0.38524,0.744986 0.38526,0.74498 v 1.28011 1.28011 l -0.52383,1.02746 -0.52383,1.02745 0.32538,0.39429 c 0.17897,0.21685 0.68259,0.61266 1.11914,0.87958 l 0.79376,0.4853 0.87304,10e-4 c 0.48016,5.2e-4 1.2032,-0.16976 1.60677,-0.37844 z M 94.37762,80.755819 c 0,-0.195342 -0.16351,-0.490863 -0.36334,-0.656714 l -0.36334,-0.301546 -0.43041,0.165166 -0.43041,0.165164 v 0.611103 0.6111 l 0.33073,0.118589 c 0.46158,0.165507 1.25677,-0.285533 1.25677,-0.712862 z m 1.32291,0.770663 c 0,-0.07276 -0.0595,-0.132292 -0.13229,-0.132292 -0.0728,0 -0.13229,0.05953 -0.13229,0.132292 0,0.07276 0.0595,0.132291 0.13229,0.132291 0.0728,0 0.13229,-0.05953 0.13229,-0.132291 z m 4.327,-0.523907 0.13457,-0.3507 -0.3632,-0.488738 -0.36321,-0.488739 -0.46277,0.283486 c -0.64799,0.396949 -0.71848,0.777417 -0.23383,1.262062 l 0.41634,0.416343 0.36876,-0.141507 c 0.20282,-0.07783 0.42932,-0.29932 0.50334,-0.492207 z M -117.28905,101.10565 V 80.60044 h 0.66145 0.66147 v 19.84375 19.84375 h 25.399998 25.399999 v 0.66146 0.66146 h -26.061458 -26.061449 z m 57.502545,20.01544 c -2.388164,-0.82528 -4.191712,-2.55986 -4.977561,-4.78719 l -0.402067,-1.13957 v -1.7957 -1.79571 l 0.863778,-1.66859 0.86378,-1.6686 1.273,-0.96213 c 1.636136,-1.2366 2.661468,-1.55334 5.664547,-1.74989 l 2.447395,-0.16018 v 0.66797 0.66796 l -2.315104,0.11631 -2.315104,0.11631 -1.193594,0.53469 c -1.47411,0.66035 -2.832928,1.98858 -3.470724,3.39259 l -0.483436,1.0642 -0.0058,1.6017 -0.0058,1.6017 0.685332,1.37528 0.685331,1.37528 0.968314,0.80094 0.968315,0.80093 1.304792,0.38927 1.304793,0.38928 H 5.790201 69.50676 v 0.66146 0.66146 l -63.963019,-0.009 -63.96302,-0.009 -1.367247,-0.47249 z M 131.41928,120.9494 v -0.66146 h 3.43959 3.43958 v -6.21771 -6.21771 h 6.08542 6.08542 v 1.32292 1.32292 h 0.62232 0.62234 l 0.89515,0.60325 c 0.49237,0.33179 1.04401,0.89734 1.22586,1.25677 l 0.33069,0.65352 0.004,1.3996 0.004,1.3996 -0.54735,1.07287 -0.54732,1.07287 -1.29852,0.57024 -1.29852,0.57023 -0.006,0.59532 -0.006,0.59531 h 11.59364 11.59363 l 1.30479,-0.38928 1.3048,-0.38927 1.0013,-0.82812 1.0013,-0.82812 0.71848,-1.36229 0.71851,-1.3623 0.0839,-9.59114 0.0839,-9.591147 h 0.64373 0.64371 v 7.937497 7.9375 h 8.99583 8.99584 v 0.66146 0.66146 h -8.98384 -8.98384 l -0.16931,0.99219 c -0.49772,2.9165 -1.37727,4.4679 -3.33852,5.88862 l -1.10066,0.79732 -1.32763,0.39427 -1.32765,0.39427 H 152.6709 131.41996 v -0.66146 z m 17.72708,-6.21771 v -5.55625 h -4.76249 -4.7625 v 1.50711 1.50711 l 0.87919,-0.85213 0.87916,-0.85212 0.43854,0.48457 0.43853,0.48457 -1.31772,1.29789 -1.3177,1.2979 v 0.79375 0.79375 l 1.26794,-1.24888 1.26797,-1.24888 0.31953,0.31955 c 0.53422,0.53422 0.38191,0.83007 -1.26795,2.46268 l -1.5875,1.57094 v 1.39735 1.39734 h 4.7625 4.76249 z m 2.80458,2.01083 0.89958,-0.89958 v -1.3614 -1.3614 l -0.6494,-0.64943 -0.64945,-0.64944 h -0.54118 -0.5412 v 2.91042 2.91042 h 0.29104 c 0.16006,0 0.69585,-0.40482 1.19061,-0.89959 z m 67.04543,3.39732 c -2.59861,-0.56 -4.63376,-1.39875 -6.71695,-2.76825 l -1.88202,-1.23725 -1.46918,-1.56122 c -2.60695,-2.77032 -3.98401,-5.18666 -4.91096,-8.61749 l -0.45254,-1.67498 -0.16112,-4.63021 -0.16116,-4.630208 -0.50681,-1.032775 c -0.64606,-1.31649 -2.06748,-2.740337 -3.29062,-3.296224 l -0.95384,-0.433501 -17.99167,-0.132292 -17.99167,-0.132292 -1.20407,-0.557122 c -0.66222,-0.306417 -1.66312,-0.960178 -2.22418,-1.452803 l -1.02013,-0.895681 -0.75216,-1.589905 c -0.4137,-0.874448 -0.75227,-1.857796 -0.75238,-2.185218 l -2.1e-4,-0.595312 h -15.04135 -15.04133 l -0.16212,-2.467967 -0.16211,-2.467968 -0.66477,-2.096095 -0.66477,-2.096095 -0.99896,-1.704494 -0.99896,-1.704493 -1.86738,-1.867382 -1.86738,-1.867381 -1.7045,-0.998958 -1.70448,-0.998958 -2.09611,-0.664769 -2.09609,-0.664771 -2.40181,-0.148825 -2.40182,-0.148824 -1.89921,0.40529 c -3.65993,0.781023 -6.89019,2.419249 -9.60951,4.873461 L 93.63293,69.48794 H 72.48975 51.346576 L 50.039688,69.099836 48.7328,68.711732 47.629469,67.900334 46.526141,67.088937 45.737651,65.898534 44.949161,64.708131 44.633872,63.393869 44.318587,62.079607 H 36.142893 27.9672 v 5.82009 5.82009 l 1.218879,1.654389 c 2.233338,3.031313 3.337288,5.802257 3.802211,9.543663 l 0.285459,2.297184 -0.280387,2.256375 -0.280387,2.256372 -0.678968,1.910815 c -0.85928,2.418271 -1.666735,3.84229 -3.426378,6.042716 l -1.399969,1.750649 -1.668991,1.25461 c -2.092434,1.57291 -4.12445,2.60499 -6.612644,3.35864 l -1.939034,0.58731 -12.633854,0.0971 -12.633854,0.0971 v -0.66146 -0.66145 l 12.633854,-0.0834 12.633854,-0.0834 2.116667,-0.74405 2.116667,-0.74406 1.879542,-1.16786 1.879544,-1.16786 1.864802,-1.963159 1.864804,-1.963152 1.082948,-2.209351 c 0.595622,-1.215143 1.281192,-2.983256 1.523489,-3.929141 l 0.440542,-1.719792 -0.0055,-2.513542 -0.0055,-2.513541 L 31.31132,82.89933 C 31.072847,81.908133 30.457286,80.235 29.943455,79.181252 l -0.934236,-1.915909 -1.299107,-1.605544 -1.299107,-1.605547 -1.669306,-1.264844 c -0.918118,-0.695663 -2.543551,-1.672259 -3.612076,-2.170215 l -1.942772,-0.905373 -1.893686,-0.403521 -1.893687,-0.403524 -2.778125,0.136443 -2.778125,0.136443 -1.719791,0.575212 c -7.10614,2.376763 -12.7,9.392536 -12.7,15.928239 v 1.267328 h 1.121603 1.121603 l -1.514917,1.514917 -1.514917,1.514917 -1.326477,-1.306534 C -7.419217,87.955148 -8.016133,87.273435 -8.016133,87.158823 V 86.95044 h 1.058333 1.058333 v -1.280594 -1.280591 l 0.531334,-2.077495 0.531334,-2.077493 0.939059,-1.900507 0.939059,-1.90051 1.455989,-1.765162 1.455986,-1.765163 1.637683,-1.207092 c 0.900724,-0.663901 2.442504,-1.61294 3.426175,-2.108981 l 1.788496,-0.90189 2.180254,-0.522698 2.180256,-0.5227 h 2.38125 2.38125 l 2.116667,0.50991 c 2.675951,0.644639 4.562803,1.482103 6.818164,3.026182 l 1.780794,1.219182 V 67.232584 62.07033 l -21.14737,0.07078 -21.147371,0.07079 -0.730551,0.545515 c -0.401804,0.300032 -0.976035,0.873863 -1.276067,1.27518 l -0.545515,0.729668 -0.132292,5.207109 -0.132292,5.207111 -0.347615,0.60947 c -0.191188,0.335209 -0.726969,0.84078 -1.190625,1.12349 l -0.84301,0.514019 -10.715625,0.0013 -10.715624,0.0013 -0.920769,0.462608 -0.920766,0.462611 -0.600588,0.899022 -0.600586,0.899025 v 2.342121 2.342123 h -0.68554 -0.685544 l 0.09023,-2.732415 0.09023,-2.732413 0.661459,-0.97627 0.661458,-0.976268 1.308719,-0.656942 1.308722,-0.656942 h 10.807993 10.807994 l 0.64943,-0.649433 0.649433,-0.64943 V 70.278431 65.75336 l 0.306565,-1.217478 0.306565,-1.217477 0.956556,-0.956556 0.956556,-0.956557 1.08268,-0.324379 1.08268,-0.324223 h 2.284408 2.284407 v -2.472534 -2.472535 l 0.483854,-0.437882 0.483854,-0.437882 1.169792,-6.08e-4 1.169791,-6.09e-4 v -1.943647 -1.943647 l 0.363125,-0.436991 0.363128,-0.436998 H 6.024177 18.412193 l 0.41188,0.588038 0.411877,0.588038 v 1.793212 1.793212 h 1.171726 1.171725 l 0.415775,0.415774 0.415774,0.415774 v 2.494643 2.494642 h 2.116666 2.116667 v -8.336458 -8.336458 l -48.930559,0.06823 -48.93056,0.06823 -0.817012,0.782763 -0.817012,0.782763 -0.274204,0.937029 -0.274203,0.937029 0.08167,13.229166 0.08167,13.229167 0.46673,0.686823 c 0.256704,0.377757 0.768321,0.824241 1.136931,0.992188 l 0.670197,0.305364 h 10.570882 10.570885 v 0.669795 0.669793 l -11.093413,-0.07448 -11.093413,-0.07448 -0.746691,-0.556823 c -0.410681,-0.306253 -0.984816,-0.961096 -1.275858,-1.455208 l -0.529167,-0.898385 -0.07664,-11.575521 -0.07664,-11.575521 h -5.810338 -5.810337 V 50.570238 49.90878 h 5.820833 5.820834 V 48.351487 46.7942 l 0.731321,-1.399908 0.731319,-1.399909 1.162378,-0.614679 1.162378,-0.61468 H 29.728605 130.36095 v 0.661458 0.661459 H 114.48596 98.61095 v 9.885072 9.885073 l 2.3151,-0.86419 2.31512,-0.864193 2.06275,-0.327904 2.06273,-0.327904 2.03829,0.162339 c 3.73077,0.297136 7.62647,1.713628 10.27524,3.736107 l 1.23187,0.940599 h 17.8377 17.83771 l -0.0825,-8.665104 -0.0825,-8.665104 -0.5851,-1.093907 c -0.6926,-1.294939 -1.92564,-2.580911 -3.08099,-3.213297 l -0.83183,-0.455296 -7.54062,-0.132291 -7.54063,-0.132292 -0.0865,-0.61013 -0.0865,-0.610129 7.75942,0.08096 7.75941,0.08096 1.4552,0.819886 1.4552,0.819887 0.96827,1.269679 0.9683,1.269679 0.42077,1.499667 0.42079,1.499667 v 16.79788 16.79788 l 0.69652,1.397743 0.69654,1.397744 1.22168,0.887664 1.22172,0.887664 1.10934,0.280083 c 0.61016,0.154048 1.50591,0.280085 1.9906,0.280085 h 0.88122 l 2.09105,-2.10339 2.09106,-2.103387 0.80078,-0.07943 0.80082,-0.07942 2.3405,-10.054166 2.34051,-10.054167 -0.27763,-1.128276 c -0.15269,-0.620552 -0.27718,-1.513521 -0.27665,-1.984375 v -0.856099 l 0.51554,-0.84552 c 0.66183,-1.085452 1.58671,-1.683642 2.84583,-1.840649 l 1.00227,-0.12498 1.18852,0.611824 1.18853,0.611824 0.51755,1.265129 0.51755,1.265129 -0.33711,1.116122 c -0.49392,1.635313 -0.57895,1.110406 1.94892,12.030184 l 2.34284,10.120312 h 0.96707 0.96708 l 2.03137,2.087436 2.03139,2.087435 2.84313,0.108421 2.84317,0.108421 1.11712,0.583893 c 0.61442,0.321141 1.53238,0.948492 2.03992,1.394116 l 0.92277,0.81022 0.73412,1.500458 0.73411,1.500454 0.17452,4.897594 0.17454,4.897589 0.4507,1.45521 c 0.24786,0.80036 0.94115,2.40771 1.54064,3.57187 l 1.08995,2.11667 2.13114,2.14132 2.13114,2.14131 2.50777,1.23795 2.5078,1.23795 1.85209,0.38645 1.85208,0.38646 h 1.98437 1.98438 l 1.85208,-0.38646 1.85209,-0.38645 2.5078,-1.23795 2.50777,-1.23795 2.14707,-2.14706 2.14706,-2.14707 1.23796,-2.50779 1.23793,-2.50779 0.38648,-1.85209 0.38645,-1.85208 v -1.98437 -1.984375 l -0.38645,-1.852084 -0.38648,-1.852083 -1.23793,-2.507792 -1.23796,-2.507793 -2.14706,-2.147064 -2.14707,-2.147065 -2.50777,-1.237948 -2.5078,-1.237951 -1.85209,-0.386453 c -1.01864,-0.212551 -2.23903,-0.388522 -2.71198,-0.391049 l -0.85889,-0.0046 v 0.926041 c 0,1.206839 -0.17576,1.171612 -1.65015,-0.330729 l -1.23338,-1.256771 1.19173,-1.25677 c 1.425,-1.502749 1.42722,-1.503265 1.42722,-0.33073 v 0.926042 h 0.93721 c 2.76608,0 7.04802,1.396074 9.81876,3.201291 l 1.65786,1.080124 1.79673,1.909416 c 0.98819,1.050179 2.15392,2.525279 2.59048,3.278 l 0.79375,1.368583 3.37648,0.0053 3.37645,0.0052 -1.20523,-1.653646 -1.20525,-1.653645 1.40065,-0.172271 c 0.77036,-0.09475 2.2384,-0.184046 3.26231,-0.198437 l 1.86164,-0.02617 0.62084,-4.960938 0.62082,-4.960937 0.35928,-0.582187 0.3593,-0.582184 0.97615,-0.269531 0.97616,-0.269531 1.09164,0.274879 1.09165,0.274878 4.48315,-0.143743 c 2.46571,-0.07906 4.86675,-0.155601 5.33564,-0.17009 l 0.85249,-0.02635 0.75573,0.446421 0.75574,0.446421 0.58533,4.533839 c 0.32192,2.493614 0.64553,4.843346 0.71914,5.221629 l 0.13382,0.68779 3.06678,0.164351 c 3.66798,0.196572 3.54508,0.110331 2.40636,1.688782 -0.5036,0.698064 -1.00112,1.418035 -1.10561,1.599936 l -0.18997,0.330729 h 3.19061 3.19061 v -14.2875 -14.2875 h -13.4643 -13.46431 l -0.18383,0.979882 c -0.24037,1.281269 -0.99901,2.743843 -2.03568,3.924546 l -0.83446,0.950389 -1.34673,0.710612 -1.34672,0.710613 -25.32917,0.07131 -25.32915,0.07132 -0.0708,6.410976 -0.0708,6.410978 -0.59531,0.08455 -0.59532,0.08455 V 72.591307 61.105791 l 0.8091,-1.619159 0.80912,-1.619159 0.84452,-0.71435 c 0.46451,-0.392892 1.43987,-0.985597 2.16747,-1.317123 l 1.32292,-0.602774 1.5875,-0.08254 1.5875,-0.08254 0.0796,0.557307 0.0796,0.557307 -1.48817,0.174903 c -2.77921,0.326644 -4.93644,1.77212 -5.97273,4.00215 l -0.49184,1.058333 -0.006,4.167187 -0.006,4.167188 h 5.82084 5.82083 V 57.978563 46.204605 h 6.08542 6.08541 v 1.190625 1.190625 h 10.18646 10.18646 v 10.583333 10.583333 h 2.85848 2.85845 l 1.37528,-0.685332 1.37528,-0.685331 0.79126,-0.959933 0.79126,-0.959929 0.43222,-1.301337 0.43225,-1.301338 -0.14298,-1.385262 -0.14298,-1.385264 -0.52752,-1.02595 c -0.94846,-1.844551 -2.61946,-3.094566 -4.74663,-3.550761 l -1.38562,-0.297162 v -0.614357 -0.614357 l 1.12448,0.140377 c 0.61846,0.07721 1.69243,0.379226 2.38657,0.671153 l 1.26208,0.530775 1.28458,1.405533 1.28458,1.405532 0.47998,1.602305 0.47996,1.602305 h 14.10516 14.10512 V 87.744187 113.14419 H 260.7259 238.42646 l -1.5792,1.59801 c -2.81246,2.84589 -6.00127,4.56961 -9.97046,5.38946 l -2.03749,0.42086 -2.06167,-0.021 -2.06169,-0.021 -1.71978,-0.37061 z m 62.70625,-17.44669 v -9.128127 h -20.26894 -20.26893 l 0.15557,0.405382 c 0.0855,0.222961 0.36055,1.145696 0.61114,2.05052 l 0.45556,1.64514 0.0124,3.175005 0.0124,3.17499 -0.4894,1.90961 -0.48943,1.9096 -1.00121,1.993 -1.00123,1.993 h 21.13594 21.13595 v -9.12812 z m -7.39868,-11.521577 c 1.14168,-1.441463 1.64488,-1.349618 -8.26198,-1.507945 l -8.81331,-0.140853 -4.95688,0.197567 -4.95689,0.197567 0.83454,1.1621 0.83456,1.162098 h 12.23605 12.23602 z m -84.41174,-3.824258 -1.43714,-1.455208 h -8.88162 -8.8816 l -1.43714,1.455208 -1.43714,1.455208 h 11.75588 11.7559 z m 79.80635,0.595313 c -0.0878,-0.327422 -0.16116,-0.744141 -0.16314,-0.926042 l -0.004,-0.330729 h -8.33436 -8.33438 v 0.926041 0.926042 h 8.49752 8.49755 z m -0.43135,-2.930507 c 0,-0.89917 -0.83173,-6.142357 -1.00034,-6.306098 -0.10465,-0.101642 -0.50305,-0.26199 -0.88532,-0.356327 l -0.69503,-0.171524 -0.9906,0.869759 -0.99063,0.869762 -0.47341,-0.584668 -0.47344,-0.584668 h -2.47362 -2.47364 l -0.33047,0.529166 c -0.4238,0.678609 -0.90947,0.670873 -1.53879,-0.0245 -0.27559,-0.304522 -0.69902,-0.659611 -0.94093,-0.789088 l -0.4399,-0.235413 -0.78036,0.272042 -0.78039,0.272045 -0.32155,2.699855 c -0.17687,1.484921 -0.38613,2.967747 -0.46503,3.295169 l -0.14348,0.595312 h 8.09847 8.09847 v -0.350819 z m -84.81219,-0.664234 c -0.13826,-0.121719 -1.29419,-1.087903 -2.56874,-2.14708 l -2.31739,-1.925778 -1.38678,1.079844 c -0.76274,0.593913 -1.92256,1.555022 -2.5774,2.135799 l -1.19062,1.055957 5.14614,0.01127 5.14615,0.01127 -0.25135,-0.221303 z m -8.28679,-3.1194 2.2883,-1.885495 -1.84638,-1.508424 c -1.01556,-0.829635 -1.87437,-1.469443 -1.90853,-1.421797 -0.0341,0.04764 -0.39683,1.574909 -0.80598,3.393919 -0.40912,1.819011 -0.80957,3.485885 -0.88987,3.704167 l -0.146,0.396875 0.51008,-0.396875 c 0.28053,-0.218282 1.53981,-1.245349 2.79838,-2.28237 z m 8.80493,-1.056936 c -0.38812,-1.728642 -0.79161,-3.238384 -0.89665,-3.354981 l -0.191,-0.211991 -1.63841,1.369021 c -0.90111,0.752961 -1.56485,1.443672 -1.47497,1.53491 0.5109,0.51862 4.76698,3.932895 4.83056,3.875152 0.0419,-0.03802 -0.24142,-1.483469 -0.62953,-3.212111 z M 156.55468,74.515024 V 67.635857 H 139.4817 122.40874 l 1.26412,1.653646 c 2.18505,2.858328 3.59994,6.553107 3.9515,10.31875 l 0.16675,1.785937 h 14.3818 14.38177 z m 25.35531,1.997045 1.89851,-1.574828 -0.12118,-0.409547 c -0.0667,-0.22525 -0.2606,-0.978354 -0.43099,-1.673565 l -0.30977,-1.264021 -3.59904,0.0734 -3.59905,0.0734 -0.34237,1.544783 -0.34237,1.544785 0.70395,0.553715 c 0.38716,0.304543 1.37207,1.115872 2.18871,1.802947 l 1.48475,1.249233 0.2852,-0.172733 c 0.15684,-0.095 1.13948,-0.881404 2.18365,-1.74756 z m 0.70861,-6.561108 c -0.0622,-0.181901 -0.36586,-1.431062 -0.67465,-2.775913 l -0.56148,-2.445187 -0.552,0.295429 -0.55203,0.295426 -1.49992,-0.156774 -1.4999,-0.156771 -0.44315,2.041946 c -0.24371,1.123072 -0.51517,2.309839 -0.60322,2.637261 l -0.16013,0.595312 h 3.32986 3.32984 z m 38.22983,-11.310937 v -11.1125 h -4.76248 -4.76251 v 11.1125 11.1125 h 4.76251 4.76249 z m -7.40832,1.5875 v -0.529167 h 2.64582 2.64584 v 0.529167 0.529166 h -2.64584 -2.64582 z m 0.0477,-2.711979 0.0846,-0.595313 2.57969,-0.07573 2.57969,-0.07573 v 0.67104 0.671039 h -2.66425 -2.66422 z m 0,-2.645834 0.0846,-0.595312 2.57969,-0.07573 2.57969,-0.07573 v 0.671039 0.67104 h -2.66425 -2.66422 z m 17.67935,4.960938 v -9.921875 h -4.49789 -4.49793 v 9.921875 9.921875 h 4.49793 4.49789 z m -7.14375,0.396875 v -0.529167 h 2.64585 2.64582 v 0.529167 0.529166 h -2.64582 -2.64585 z m 0,-2.787706 v -0.67104 l 2.5797,0.07573 2.57969,0.07573 0.0846,0.595313 0.0845,0.595312 h -2.66422 -2.66425 z m 0,-2.645834 v -0.671039 l 2.5797,0.07573 2.57969,0.07573 0.0846,0.595312 0.0845,0.595313 h -2.66422 -2.66425 z m 17.19792,5.036665 v -9.921875 h -4.36563 -4.36561 v 9.921875 9.921875 h 4.36561 4.36563 z m -7.14375,0.396875 v -0.529167 h 2.64583 2.64584 v 0.529167 0.529166 h -2.64584 -2.64583 z m 0.0477,-2.711979 0.0846,-0.595313 2.57969,-0.07573 2.57969,-0.07573 v 0.67104 0.671039 h -2.66425 -2.66422 z m 0,-2.645834 0.0846,-0.595312 2.57969,-0.07573 2.57969,-0.07573 v 0.671039 0.67104 h -2.66425 -2.66422 z m -176.73987,9.392708 0.115,-3.902604 0.34768,-0.661458 c 0.19122,-0.363802 0.55615,-0.899583 0.81095,-1.190625 l 0.46328,-0.529167 0.13602,-1.286995 0.13603,-1.286996 0.51092,-0.697379 c 0.28101,-0.383559 0.91918,-0.905554 1.41816,-1.159989 l 0.90723,-0.46261 0.93624,-4.23e-4 0.93625,-4.24e-4 1.03008,0.525167 c 0.56655,0.288841 1.03861,0.497201 1.04903,0.463021 0.0104,-0.03418 0.26856,-0.420114 0.57366,-0.85763 l 0.55471,-0.795483 0.18988,-1.266202 0.18988,-1.266201 0.8004,-0.911609 0.80041,-0.911608 1.00827,-0.302086 1.00827,-0.302086 1.00464,0.188471 1.00463,0.188471 0.9807,0.980697 0.9807,0.980697 0.19242,1.312462 0.19242,1.312461 0.54021,0.79375 c 0.29712,0.436563 0.55712,0.821716 0.5778,0.855896 0.0207,0.03418 0.50112,-0.17418 1.06766,-0.463021 l 1.03009,-0.525142 0.93624,4.23e-4 0.93624,4.23e-4 0.90724,0.46261 c 0.49898,0.254435 1.13715,0.77643 1.41815,1.159989 l 0.51093,0.697379 0.13602,1.286996 0.13602,1.286996 0.46328,0.529166 c 0.2548,0.291042 0.59722,0.78923 0.76093,1.107086 l 0.29764,0.577893 v 3.986145 3.986144 h 3.91925 3.91925 l 0.7771,-0.816105 c 0.42741,-0.448855 1.34266,-1.232903 2.03388,-1.742324 l 1.25677,-0.926224 V 54.384156 44.087941 H 71.47884 45.669642 l 0.07847,9.591145 0.07846,9.591146 0.492641,0.926042 c 1.591837,2.992249 3.455901,3.910846 8.00743,3.946009 l 2.943817,0.02274 z m 16.61923,1.785938 V 63.93169 H 71.4911 68.97756 v 2.116667 2.116667 h 2.51354 2.51354 z m -6.35142,-1.256771 -0.002,-3.108854 -0.27291,-0.982627 c -0.1501,-0.540445 -0.39637,-1.058935 -0.54728,-1.1522 l -0.27437,-0.169571 -0.57573,0.523823 c -0.90803,0.82628 -1.64716,1.119117 -2.82457,1.119117 -1.1774,0 -1.91653,-0.292837 -2.82468,-1.119117 l -0.57573,-0.523823 -0.27437,0.169571 c -0.15091,0.09327 -0.39718,0.611755 -0.54728,1.1522 l -0.2729,0.982627 -0.002,3.108854 -10e-4,3.108854 h 4.49791 4.49792 l -0.002,-3.108854 z m 16.66875,0 -0.002,-3.108854 -0.2729,-0.982627 c -0.1501,-0.540445 -0.39637,-1.058935 -0.54728,-1.1522 l -0.27437,-0.169571 -0.57573,0.523823 c -0.90733,0.825635 -1.64697,1.119117 -2.82031,1.119117 H 78.7405 l -0.73374,-0.379429 c -0.40355,-0.208687 -0.88847,-0.565874 -1.07759,-0.79375 -0.51727,-0.623281 -0.79601,-0.508176 -1.2186,0.503222 l -0.38338,0.917544 v 3.315789 3.315791 h 4.49792 4.49792 l -0.002,-3.108855 z m 96.32447,-1.132321 c 0.5962,-0.319075 1.30827,-1.592683 1.30827,-2.339969 v -0.522005 l -0.66861,-0.794599 -0.66864,-0.794598 -0.76724,-0.168525 -0.76729,-0.168524 -0.80525,0.416395 c -0.96425,0.498637 -1.35006,1.146185 -1.35006,2.265959 v 0.831496 l 0.77339,0.773398 0.77342,0.773398 h 0.83148 c 0.45733,0 1.06056,-0.122592 1.34053,-0.272426 z M 74.13256,61.355489 c 0.207,-1.380407 0.6741,-2.437904 1.3099,-2.96557 l 0.41432,-0.343855 V 56.549832 55.0536 l -0.4254,-0.607354 -0.42541,-0.607354 -0.56678,0.515419 c -0.31173,0.283481 -0.84539,0.659283 -1.1859,0.835115 l -0.61912,0.319695 h -1.14301 -1.14302 l -0.61911,-0.319695 c -0.34052,-0.175832 -0.87417,-0.551634 -1.1859,-0.835115 l -0.56678,-0.515419 -0.42541,0.607354 -0.42541,0.607354 v 1.496232 1.496232 l 0.41432,0.343855 c 0.6358,0.527666 1.1029,1.585163 1.30991,2.96557 l 0.18794,1.253285 h 2.45346 2.45346 z M 21.032187,58.441586 20.955741,56.126482 H 6.006783 -8.942175 l -0.07645,2.315104 -0.07645,2.315104 H 6.006783 21.108636 Z M 44.371366,52.422315 V 44.087941 H 36.169283 27.9672 v 8.334374 8.334375 h 8.202083 8.202083 z M 33.788033,58.218197 C 32.5729,57.691864 31.486018,56.639451 30.820313,55.34459 l -0.538009,-1.046475 v -1.611216 -1.611216 l 0.538009,-1.046476 c 0.680556,-1.323742 1.765625,-2.358298 3.025367,-2.884523 l 0.983689,-0.41091 1.529853,0.0062 1.529853,0.0062 1.313828,0.721424 1.313831,0.721424 0.802835,1.302168 0.802839,1.302168 v 1.89358 1.893581 l -0.802839,1.302168 -0.802835,1.302168 -1.313831,0.721424 -1.313828,0.721423 -1.5875,-0.0042 -1.5875,-0.0042 -0.926042,-0.401114 z M 38.28595,55.725433 V 55.465024 H 37.4922 36.69845 l 0.0078,1.124479 0.0078,1.124479 0.785993,-0.86407 c 0.432305,-0.475239 0.786003,-0.981254 0.786003,-1.124479 z m -2.645834,0.665632 V 55.465024 H 34.978658 34.3172 v 0.338003 c 0,0.446898 0.756528,1.51408 1.073335,1.51408 h 0.249581 z m -2.285568,0 C 33.270783,56.172784 33.081349,55.99419 32.93358,55.99419 h -0.268674 l 0.329377,0.396875 c 0.181157,0.218282 0.370594,0.396875 0.420968,0.396875 0.05037,0 0.02307,-0.178593 -0.0607,-0.396875 z m 6.254318,-0.132291 c 0,-0.145521 -0.0525,-0.264584 -0.116676,-0.264584 -0.06417,0 -0.190262,0.119063 -0.280199,0.264584 l -0.16352,0.264583 h 0.280196 c 0.154109,0 0.280199,-0.119062 0.280199,-0.264583 z M 32.597408,54.25235 v -0.771701 l -0.595313,-0.08455 -0.595312,-0.08455 v 0.265761 c 0,0.146169 0.119795,0.580846 0.26621,0.96595 l 0.266214,0.700188 0.329099,-0.1097 0.329102,-0.109701 z m 8.308491,0.114859 c 0.374068,-1.073049 0.392162,-1.018852 -0.340146,-1.018852 h -0.630616 l -0.138959,0.72693 -0.138962,0.72693 0.306554,0.19506 c 0.510233,0.324662 0.639429,0.23826 0.942129,-0.630068 z m -5.265783,-0.489685 v -0.529167 h -0.926041 -0.926042 v 0.529167 0.529166 h 0.926042 0.926041 z m 3.126055,-0.06615 0.08775,-0.463021 h -1.077735 -1.077732 v 0.545138 0.545139 l 0.989986,-0.08212 0.989988,-0.08212 z m -6.163019,-2.341255 0.180081,-0.8199 -0.291351,-0.29135 -0.291349,-0.291349 -0.259622,0.259622 c -0.142793,0.142793 -0.33627,0.642855 -0.429948,1.11125 l -0.170326,0.851628 h 0.541216 0.541218 z m 3.036964,0.187389 v -0.632511 l -0.904184,-0.105558 -0.904182,-0.105558 -0.108326,0.738069 -0.108325,0.73807 h 1.012507 1.01251 z m 3.127256,0.0372 -0.08455,-0.595312 -0.992188,-0.08212 -0.992187,-0.08212 v 0.67743 0.67743 h 1.076735 1.076735 z m 2.428994,0.370211 c 0,-0.432563 -0.582414,-1.89153 -0.753488,-1.887513 -0.0949,0.0022 -0.306205,0.09153 -0.469556,0.198437 l -0.297003,0.194386 0.128595,0.859896 0.128596,0.859896 h 0.631428 c 0.347284,0 0.631428,-0.101296 0.631428,-0.225102 z m -5.55625,-3.08219 v -0.926038 h -0.249581 c -0.316807,0 -1.073335,1.067182 -1.073335,1.514079 v 0.338004 h 0.661458 0.661458 z m 2.645834,0.665633 c 0,-0.143225 -0.353698,-0.649241 -0.785996,-1.124479 l -0.785992,-0.86407 -0.0078,1.124479 -0.0078,1.124479 h 0.79375 0.79375 z m -4.917044,-0.703057 0.166656,-0.434298 -0.402931,0.334404 c -0.459116,0.381033 -0.506899,0.534193 -0.166656,0.534193 0.129953,0 0.311272,-0.195434 0.402931,-0.434299 z m 6.23996,0.169716 c 0,-0.145521 -0.12609,-0.264583 -0.280199,-0.264583 h -0.280196 l 0.16352,0.264583 c 0.08994,0.145521 0.216027,0.264583 0.280199,0.264583 0.06417,0 0.116676,-0.119062 0.116676,-0.264583 z m 25.420354,9.809936 0.7734,-0.773398 v -1.04005 -1.040051 l -0.63891,-0.68939 C 64.81231,55.002902 64.217,54.615421 63.84079,54.521 L 63.15678,54.349325 62.47277,54.521 c -0.3762,0.09442 -0.97151,0.481902 -1.32291,0.861068 l -0.63891,0.689393 v 1.040051 1.04005 l 0.7734,0.773398 0.77339,0.773397 h 1.09904 1.09904 z m 16.66875,0 0.7734,-0.773398 v -0.801653 c 0,-0.440909 -0.14225,-1.113841 -0.3161,-1.495403 l -0.31609,-0.693751 -0.7291,-0.377032 c -1.94041,-1.003422 -3.93038,0.213764 -3.93038,2.404051 v 0.963788 l 0.7734,0.773398 0.77339,0.773397 h 1.09904 1.09904 z m -63.838457,-5.77504 0.07877,-1.653646 H 6.019409 -5.899467 v 1.543402 c 0,0.848872 0.0806,1.624002 0.179107,1.722511 l 0.179108,0.179107 11.660997,-0.06886 11.660996,-0.06887 z m 55.460467,0.281827 0.65115,-0.651146 0.17101,-0.778602 0.17101,-0.778602 -0.49944,-0.855156 C 73.53902,49.897905 73.02314,49.359871 72.6673,49.17261 l -0.64698,-0.340474 -0.89271,0.130135 c -1.04952,0.152993 -1.71643,0.693542 -2.15147,1.743821 l -0.31442,0.759062 0.30361,0.91993 0.3036,0.91993 0.59298,0.388531 c 1.244,0.815101 2.47432,0.721958 3.45807,-0.261798 z m -185.58195,61.564526 v -1.85208 h 21.431254 21.43125 v 1.85208 1.85209 h -21.43125 -21.431254 z m 41.539588,0 v -0.52916 h -20.108334 -20.108324 v 0.52916 0.52917 h 20.108324 20.108334 z m 51.198522,-2.11498 -1.035084,-1.06002 h -7.883803 -7.883803 v -1.5875 -1.5875 h -2.060466 -2.060467 l -1.304147,1.32406 -1.304147,1.32405 -1.471705,-1.45634 -1.471702,-1.45635 h -2.307434 -2.307431 V 97.930648 87.479607 h 14.684374 14.684375 v 3.571875 3.571875 h 4.497917 4.497916 v 8.466663 8.46667 h -1.90914 -1.909141 l -1.210516,1.19231 -1.210514,1.19232 z m 4.441278,-2.64752 h 1.510199 v -7.27604 -7.27604 h -10.715625 -10.715625 v 7.40833 7.40834 h 7.491124 7.491124 l 0.763114,0.79652 0.763114,0.79651 0.951188,-0.92881 0.95119,-0.92881 z m -16.625785,-5.67651 -0.649433,-0.64943 v -0.89195 -0.89195 l 0.612365,-0.57529 0.612365,-0.57528 h 0.955932 0.955931 l 0.548371,0.69714 0.54837,0.69714 v 0.77009 0.7701 l -0.649433,0.64943 -0.649431,0.64943 h -0.817803 -0.817803 z m 1.993604,-1.06699 0.326581,-0.39351 -0.153588,-0.40024 -0.153588,-0.40025 h -0.545775 -0.545775 l -0.152294,0.39688 c -0.375417,0.97832 0.565624,1.59094 1.224439,0.79712 z m 4.13952,1.16805 -0.69714,-0.54837 v -1.03913 -1.03913 l 0.529167,-0.52917 0.529166,-0.52916 h 0.86717 0.867171 l 0.557806,0.3907 0.557805,0.3907 0.177776,0.70831 0.177773,0.70831 -0.297717,0.71875 -0.297717,0.71875 -0.656024,0.2989 c -0.949856,0.43279 -1.52695,0.37061 -2.315236,-0.24946 z m 1.920862,-1.13789 0.301545,-0.36333 -0.165166,-0.43042 -0.165163,-0.43041 h -0.509162 -0.509164 l -0.152294,0.39688 c -0.36657,0.95526 0.561771,1.59558 1.199404,0.82728 z m 4.346143,1.37174 -0.576479,-0.27871 -0.298667,-0.72104 -0.298667,-0.72104 0.177774,-0.70831 0.177776,-0.70831 0.557805,-0.3907 0.557805,-0.3907 h 0.752274 c 0.41375,0 0.970047,0.11655 1.236215,0.25899 l 0.483942,0.259 0.282101,0.80924 0.282102,0.80923 -0.237572,0.62486 c -0.476033,1.25207 -1.843472,1.76324 -3.096409,1.15749 z m 1.745412,-1.49703 0.261509,-0.48863 -0.305115,-0.30512 c -0.167815,-0.16781 -0.506693,-0.30512 -0.75306,-0.30512 h -0.447942 l -0.165164,0.43041 -0.165166,0.43042 0.301546,0.36333 c 0.420357,0.5065 0.96389,0.45302 1.273392,-0.12529 z m -21.068813,3.92822 h 2.305089 l -0.0016,-3.37344 -0.0016,-3.37344 -0.782579,-0.44526 -0.782579,-0.445268 -0.170471,-0.679214 c -0.09376,-0.373568 -0.09376,-0.984861 0,-1.358429 l 0.170471,-0.679215 0.782579,-0.445264 0.782579,-0.445265 0.0016,-0.727604 0.0016,-0.727604 h 6.879167 6.879167 V 91.71294 88.802523 h -13.361459 -13.361458 v 9.128125 9.128122 h 1.929286 1.929286 l 1.169022,1.19115 1.169022,1.19115 1.078894,-1.05886 1.078894,-1.05885 z m -5.199854,-7.42754 -0.69714,-0.54837 v -0.993011 -0.993007 l 0.612365,-0.575289 0.612365,-0.575286 h 0.854871 0.854869 l 0.64943,0.649433 0.649434,0.64943 v 0.817803 0.817803 l -0.649434,0.649431 -0.64943,0.649433 h -0.770096 -0.770094 z m 2.080234,-1.301345 c 0.215884,-0.680189 -0.02972,-1.060702 -0.684625,-1.060702 h -0.521857 l -0.152294,0.396875 c -0.08376,0.218281 -0.08376,0.575469 0,0.79375 l 0.152294,0.396875 h 0.519642 0.519639 z m 5.416663,-0.465389 -0.008,-0.727604 -0.270856,0.465116 -0.270857,0.465116 0.162224,0.262488 c 0.273566,0.442637 0.395949,0.295757 0.387535,-0.465116 z m -72.574164,13.782204 -0.17821,-0.17821 v -11.2007 -11.20069 h 18.259096 18.259089 l -0.06899,11.31094 -0.06899,11.31093 -18.011894,0.068 -18.011891,0.068 z m 35.011378,-11.20252 V 90.654607 h -16.933334 -16.933334 v 10.054163 10.05417 h 16.933334 16.933334 z m 287.724422,7.39147 -0.80368,-0.23372 -0.74788,-0.78064 -0.7479,-0.78063 -0.12544,-1.1446 -0.12541,-1.14459 0.62118,-0.92604 0.62117,-0.92604 0.82603,-0.39687 0.82599,-0.39688 0.3042,-1.31256 0.30417,-1.31256 0.81261,-1.266338 c 1.00049,-1.55914 2.47348,-2.753641 4.20862,-3.41294 l 1.31802,-0.500809 h 1.8464 1.84638 l 1.34141,0.509688 c 1.75545,0.667015 2.95152,1.602296 4.00242,3.129701 l 0.85468,1.242272 0.41908,1.530937 0.41907,1.530939 0.89585,0.48045 0.89586,0.48044 0.48344,0.90147 c 0.85453,1.59332 0.47099,3.29948 -1.00213,4.45824 l -0.70242,0.55253 h -1.02267 -1.02264 v -1.05833 -1.05834 h -4.94847 -4.94851 l 1.03344,-1.05833 1.03344,-1.05833 h -3.4933 -3.49326 v 2.11666 2.11667 l -0.46303,-0.0239 c -0.25466,-0.0131 -0.82467,-0.12903 -1.26671,-0.25758 z m 19.18619,-2.08847 c 0.51495,-0.9622 -0.20366,-2.92175 -1.0715,-2.92175 h -0.24536 v 1.99369 1.99368 l 0.5231,-0.27995 c 0.2877,-0.15398 0.6449,-0.50753 0.79376,-0.78567 z m -18.77936,-1.20196 v -1.98437 h -0.24538 c -0.13497,0 -0.49216,0.31371 -0.79375,0.69714 l -0.54838,0.69714 v 0.59009 0.5901 l 0.54838,0.69714 c 0.30161,0.38343 0.65878,0.69714 0.79375,0.69714 h 0.24538 z m 16.13698,-1.91822 -0.003,-2.31511 -0.62604,-1.344413 -0.62599,-1.344416 -0.97758,-0.949399 c -0.53766,-0.522171 -1.41566,-1.167339 -1.95109,-1.433711 l -0.97344,-0.484309 h -2.24896 -2.24896 l -0.97352,0.484309 c -0.53542,0.266372 -1.41343,0.91154 -1.9511,1.433711 l -0.97756,0.949399 -0.62599,1.344416 -0.62604,1.344413 -0.003,1.12448 -0.003,1.12448 h 4.89479 4.8948 v 0.18728 c 0,0.10301 -0.44088,0.63879 -0.97973,1.19063 l -0.97976,1.00334 h 3.49329 3.49327 l -0.003,-2.3151 z m -89.08391,2.00728 0.14774,-1.10158 0.50403,-0.68436 c 0.27724,-0.3764 1.08456,-1.00268 1.79406,-1.39173 0.70954,-0.38905 1.44394,-0.91782 1.63203,-1.17505 l 0.34199,-0.46768 v -1.244042 -1.244039 l 0.4185,-0.1606 c 0.23019,-0.08833 0.52785,-0.160599 0.66147,-0.160599 h 0.24293 v 1.548373 1.548367 l -0.59735,0.89903 -0.59738,0.89902 -1.26336,0.60445 -1.26336,0.60444 -0.36891,0.85076 c -0.20291,0.46792 -0.43341,1.05913 -0.51223,1.31379 l -0.1433,0.46302 h -0.57232 -0.57229 z m 4.15526,0.67854 c 0,-0.23267 0.17838,-0.79896 0.39643,-1.25843 l 0.39639,-0.83538 1.19112,-0.71944 1.19106,-0.71944 v -0.90425 -0.90425 l 0.41852,-0.1606 c 0.23019,-0.08833 0.52783,-0.160597 0.66147,-0.160597 h 0.24294 v 1.154947 1.15494 l -0.54177,0.68874 c -0.29796,0.37881 -0.86351,0.84135 -1.25677,1.02787 l -0.71501,0.33913 -0.39689,0.85417 -0.39688,0.85417 -0.59531,0.006 -0.59532,0.006 v -0.42304 z m -102.267441,-3.0247 c -1.182891,-1.61142 -1.954853,-3.552275 -2.259341,-5.680395 l -0.227137,-1.5875 0.255273,-1.852083 0.255273,-1.852084 0.907907,-1.852083 0.907904,-1.852083 0.945383,-0.914157 0.94538,-0.914159 0.431697,0.431697 0.431699,0.431697 -0.970711,1.134059 c -0.533892,0.623732 -1.259803,1.745147 -1.613138,2.492037 l -0.642429,1.357981 -0.271892,1.70198 -0.271893,1.701983 0.249451,1.532686 c 0.29889,1.836449 1.282039,4.073914 2.370117,5.393944 l 0.793824,0.96304 -0.288195,0.34725 c -0.158504,0.19099 -0.442066,0.34725 -0.630137,0.34725 H 44.151852 Z M 7.065117,98.327523 V 96.47544 H 9.71095 12.356783 V 93.731131 90.986823 L 11.364596,90.827173 10.372408,90.667521 9.397286,89.862119 8.422165,89.056716 7.875932,87.596777 7.3297,86.136838 V 84.956141 83.77544 H 7.958395 8.58709 l 0.117925,1.389063 0.117927,1.389062 0.488974,1.023424 0.488974,1.023424 0.814924,0.496941 0.814928,0.49694 h 1.5875 1.587499 l 0.814928,-0.49694 0.814924,-0.496941 0.488974,-1.023424 0.488974,-1.023424 0.117927,-1.389062 0.117925,-1.389063 h 0.664919 0.664919 l -0.133363,1.661427 -0.133363,1.661427 -0.561877,1.101371 -0.561877,1.10137 -0.903888,0.689429 -0.903889,0.68943 -0.950637,0.154268 -0.950637,0.154265 v 2.743506 2.743507 h 2.778125 2.778125 v 1.852083 1.852087 H 13.150533 7.065117 Z m 10.847916,0 v -0.529166 h -4.7625 -4.7625 v 0.529166 0.529167 h 4.7625 4.7625 z m 27.931795,1.268688 C 45.620086,99.275343 45.241287,98.42598 45.003056,97.708734 l -0.433144,-1.304078 0.127135,-1.776891 0.127135,-1.776892 0.741685,-1.362718 0.741683,-1.362715 h 0.322426 c 0.177337,0 0.472504,0.180827 0.655926,0.401839 l 0.333494,0.401838 -0.458546,0.506688 c -0.252201,0.27868 -0.620594,0.961056 -0.818653,1.51639 l -0.360103,1.009703 -0.009,1.322917 -0.009,1.322917 0.662668,1.423524 0.66267,1.423527 -0.300776,0.362411 c -0.418057,0.503726 -0.670298,0.454996 -1.14377,-0.220983 z M 11.58184,88.88098 C 11.082862,88.619548 10.428018,88.069495 10.126632,87.658642 L 9.578658,86.911636 v -4.688588 -4.688589 l 0.477396,-0.728599 c 0.26257,-0.40073 0.857882,-0.960596 1.322917,-1.244145 l 0.845521,-0.515546 h 0.926041 0.926042 l 0.84705,0.516478 0.84705,0.516474 0.409721,0.792313 0.40972,0.792311 v 4.524195 4.524196 l -0.383352,0.74132 c -0.492715,0.95281 -1.434541,1.56245 -2.706875,1.75215 l -1.010814,0.150707 z m 2.871308,-1.557184 0.814052,-0.68498 V 82.152393 77.66597 l -0.649433,-0.64943 -0.649431,-0.649433 h -0.791022 -0.791022 l -0.74236,0.637916 -0.742357,0.637918 -0.08568,4.022635 -0.08567,4.022635 0.320641,0.774094 0.32064,0.774094 0.691076,0.375595 c 0.996296,0.541475 1.472835,0.484026 2.390568,-0.288198 z M -107.8597,80.180954 c -6.02655,-1.45878 -11.29768,-6.774318 -12.72581,-12.833017 l -0.39988,-1.696455 V 63.13794 60.624399 l 0.40413,-1.719792 0.40413,-1.719792 0.9537,-1.932994 0.9537,-1.932995 1.81881,-1.947565 1.8188,-1.947565 1.46418,-0.971868 c 0.80531,-0.534527 2.43991,-1.335778 3.63247,-1.780556 l 2.16829,-0.80869 3.04953,-0.124066 3.04954,-0.124067 1.712965,0.428722 c 0.94214,0.235797 2.725002,0.922556 3.96193,1.526129 l 2.248958,1.097407 2.139976,2.142388 2.139974,2.142387 1.080953,2.173056 1.080952,2.173055 0.449919,2.022298 0.449918,2.022298 -0.130556,2.816104 -0.130556,2.816106 -0.730186,1.978816 c -0.401603,1.088347 -1.198973,2.721083 -1.771933,3.628302 l -1.041747,1.649487 -1.952029,1.822982 -1.95203,1.822979 -1.932993,0.953698 -1.933,0.953702 -1.71979,0.404127 -1.719795,0.404127 -2.64583,-0.01812 -2.64584,-0.01812 -1.55086,-0.375399 z m 8.297735,-1.296464 c 0.80036,-0.212712 2.34554,-0.826521 3.433717,-1.364022 l 1.978512,-0.977268 2.01214,-2.01214 2.012141,-2.01214 0.966308,-1.978512 c 0.531471,-1.088181 1.146694,-2.688132 1.367163,-3.555453 l 0.400852,-1.576943 V 63.13794 60.867868 l -0.399164,-1.576943 c -0.219538,-0.867319 -0.842846,-2.469912 -1.385131,-3.561318 l -0.985967,-1.984375 -1.994172,-2.006275 -1.99417,-2.006276 -1.978512,-0.966309 c -1.088177,-0.531471 -2.688137,-1.146694 -3.555457,-1.367163 l -1.576935,-0.400852 h -2.27007 -2.27007 l -1.57695,0.400852 c -0.86731,0.220469 -2.46727,0.835692 -3.55545,1.367163 l -1.97851,0.966309 -1.99564,2.006276 -1.99564,2.006275 -0.96425,1.852083 c -0.53033,1.018646 -1.15298,2.583645 -1.38366,3.477775 l -0.41941,1.625691 v 2.437159 2.437159 l 0.41941,1.625693 c 0.23068,0.894128 0.85051,2.459127 1.37742,3.477773 l 0.958,1.852084 1.99602,1.993278 1.99602,1.993275 1.71979,0.904341 c 0.94589,0.497385 2.43417,1.109976 3.30729,1.361311 l 1.5875,0.456973 2.64584,0.01572 2.64583,0.01572 1.455205,-0.386752 z m -0.21643,-10.851758 -3.449395,-3.571875 h -0.49542 c -0.95521,0 -1.63745,-1.772074 -0.86583,-2.248958 l 0.26458,-0.163522 v -6.73126 -6.73126 h 0.66146 0.66146 v 6.582187 6.582186 l 0.39687,0.329377 c 0.21828,0.181157 0.39688,0.569812 0.39688,0.863677 v 0.534299 l 3.469035,3.670176 3.469043,3.670176 -0.32644,0.393334 c -0.510953,0.615662 -0.537951,0.595144 -4.182243,-3.178537 z m 38.228236,4.189235 -0.17639,-0.176387 V 60.500926 48.956274 l 0.3175,-0.3175 0.3175,-0.3175 h 2.06375 2.06375 v -0.529167 -0.529166 h 0.908211 0.908211 l 0.167953,0.529166 0.167952,0.529167 h 2.231128 2.231128 v -0.529167 -0.529166 h 0.950812 0.950812 l 0.13838,0.529166 0.138379,0.529167 h 2.2181 2.2181 v -0.529167 -0.529166 h 0.950812 0.950812 l 0.13838,0.529166 0.13838,0.529167 h 2.2181 2.218099 v -0.529167 -0.529166 h 0.950812 0.950812 l 0.13838,0.529166 0.13838,0.529167 1.887371,0.0041 1.88737,0.004 0.396875,0.250729 0.396875,0.250729 0.0744,11.256565 0.0744,11.256565 -0.282146,0.527196 -0.282146,0.527195 h -15.292428 -15.292427 l -0.176387,-0.17639 z M -31.56405,60.492107 V 49.64419 h -1.703818 -1.703822 l -0.08212,0.992188 -0.08212,0.992187 h -0.926041 -0.926042 l -0.08212,-0.992187 -0.08212,-0.992188 h -2.232988 -2.232985 v 0.761354 0.761353 l -0.382312,0.31729 -0.382313,0.317291 -0.609875,-0.08646 -0.609875,-0.08646 -0.08212,-0.992187 -0.08212,-0.992188 h -2.232988 -2.232985 v 0.761354 0.761353 l -0.382313,0.31729 -0.382312,0.317291 -0.609875,-0.08646 -0.609875,-0.08646 -0.08212,-0.992187 -0.08212,-0.992188 h -2.232988 -2.232986 v 0.761354 0.761353 l -0.382312,0.31729 -0.382312,0.317291 -0.609875,-0.08646 -0.609876,-0.08646 -0.08212,-0.992187 -0.08212,-0.992188 h -1.703822 -1.703819 v 10.847917 10.847917 h 14.419792 14.419791 z m -17.727083,5.423958 v -0.661458 h 1.190625 1.190625 v -4.371002 -4.371003 l -1.067408,0.544551 -1.067406,0.544551 -0.254087,-0.157034 c -0.139748,-0.08637 -0.376365,-0.385514 -0.525817,-0.664767 l -0.27173,-0.507733 1.585679,-0.800448 1.58568,-0.800448 h 0.801293 0.801296 v 5.291666 5.291667 h 1.322917 1.322917 v 0.661458 0.661459 h -3.307292 -3.307292 z M 132.06763,58.797029 c -0.94659,-0.412302 -2.16866,-1.781558 -2.39502,-2.683446 l -0.15902,-0.633574 -3.47891,-0.07364 -3.47893,-0.07364 5.35782,-4.316917 5.35779,-4.316917 v -5.141937 -5.141937 h 0.52918 0.52914 v 5.133594 5.133594 l 5.35784,4.32526 5.3578,4.32526 -3.47893,0.07364 -3.47893,0.07364 -0.15899,0.633574 c -0.57401,2.287085 -3.59514,3.670327 -5.86084,2.683446 z m 3.05291,-1.346119 c 0.72888,-0.376915 1.59039,-1.341255 1.59039,-1.780174 v -0.205712 h -2.91041 c -1.60073,0 -2.91042,0.06736 -2.91042,0.149685 0,1.506379 2.64672,2.655172 4.23044,1.836201 z m 5.8143,-3.664608 c -0.21308,-0.195693 -1.89887,-1.574988 -3.74615,-3.065101 l -3.35875,-2.709296 -3.38813,2.707496 c -1.86349,1.489123 -3.56248,2.868418 -3.77556,3.065101 l -0.38743,0.357605 h 7.52172 7.52173 z m 31.62187,0.3505 -2.62615,-2.636035 0.45974,-0.459736 0.45974,-0.459736 2.65428,2.654264 2.65424,2.654265 -0.48784,0.441506 -0.48786,0.441506 z m 10.64837,2.187979 -0.44151,-0.487858 2.63603,-2.626143 2.63603,-2.626143 0.45974,0.459736 0.45974,0.459737 -2.65427,2.654264 -2.65425,2.654265 z m -4.42539,-5.093091 v -2.645833 h 0.66147 0.66146 v 2.645833 2.645834 h -0.66146 -0.66147 z"
       id="path963" />
  </g>
</svg>
